%YAML 1.1
%TAG !u! tag:unity3d.com,2011:
--- !u!1001 &8668403841423873594
PrefabInstance:
  m_ObjectHideFlags: 0
  serializedVersion: 2
  m_Modification:
    m_TransformParent: {fileID: 0}
    m_Modifications:
    - target: {fileID: 1984317973627573874, guid: a960b3c3fe4503543b72144fafa0d55d, type: 3}
      propertyPath: m_Name
      value: Quest Ind
      objectReference: {fileID: 0}
    - target: {fileID: 2019988627666050908, guid: a960b3c3fe4503543b72144fafa0d55d, type: 3}
      propertyPath: m_AnchorMin.y
      value: 0.5
      objectReference: {fileID: 0}
    - target: {fileID: 2019988627666050908, guid: a960b3c3fe4503543b72144fafa0d55d, type: 3}
      propertyPath: m_AnchorMax.y
      value: 0.5
      objectReference: {fileID: 0}
    - target: {fileID: 2019988627666050908, guid: a960b3c3fe4503543b72144fafa0d55d, type: 3}
      propertyPath: m_AnchoredPosition.x
      value: 0
      objectReference: {fileID: 0}
    - target: {fileID: 2019988627666050908, guid: a960b3c3fe4503543b72144fafa0d55d, type: 3}
      propertyPath: m_SizeDelta.x
      value: 12
      objectReference: {fileID: 0}
    - target: {fileID: 2019988627666050908, guid: a960b3c3fe4503543b72144fafa0d55d, type: 3}
      propertyPath: m_SizeDelta.y
      value: 12
      objectReference: {fileID: 0}
    - target: {fileID: 4763869744186095982, guid: a960b3c3fe4503543b72144fafa0d55d, type: 3}
      propertyPath: m_fontSize
      value: 12
      objectReference: {fileID: 0}
    - target: {fileID: 4763869744186095982, guid: a960b3c3fe4503543b72144fafa0d55d, type: 3}
      propertyPath: m_fontSizeBase
      value: 12
      objectReference: {fileID: 0}
    - target: {fileID: 5850227704655522705, guid: a960b3c3fe4503543b72144fafa0d55d, type: 3}
      propertyPath: m_Name
      value: SideQuestTextCont
      objectReference: {fileID: 0}
    - target: {fileID: 6898506464469463614, guid: a960b3c3fe4503543b72144fafa0d55d, type: 3}
      propertyPath: m_Name
      value: Quest Text
      objectReference: {fileID: 0}
    - target: {fileID: 7721546466210289470, guid: a960b3c3fe4503543b72144fafa0d55d, type: 3}
      propertyPath: m_AnchorMin.y
      value: 0
      objectReference: {fileID: 0}
    - target: {fileID: 7721546466210289470, guid: a960b3c3fe4503543b72144fafa0d55d, type: 3}
      propertyPath: m_AnchorMax.y
      value: 0
      objectReference: {fileID: 0}
    - target: {fileID: 7721546466210289470, guid: a960b3c3fe4503543b72144fafa0d55d, type: 3}
      propertyPath: m_AnchoredPosition.x
      value: 0
      objectReference: {fileID: 0}
    - target: {fileID: 7721546466210289470, guid: a960b3c3fe4503543b72144fafa0d55d, type: 3}
      propertyPath: m_SizeDelta.y
      value: 18.322414
      objectReference: {fileID: 0}
    - target: {fileID: 7721546466210289470, guid: a960b3c3fe4503543b72144fafa0d55d, type: 3}
      propertyPath: m_AnchoredPosition.y
      value: 0
      objectReference: {fileID: 0}
    - target: {fileID: 7721546466210289470, guid: a960b3c3fe4503543b72144fafa0d55d, type: 3}
      propertyPath: m_AnchorMin.x
      value: 0
      objectReference: {fileID: 0}
    - target: {fileID: 7721546466210289470, guid: a960b3c3fe4503543b72144fafa0d55d, type: 3}
      propertyPath: m_AnchorMax.x
      value: 0
      objectReference: {fileID: 0}
    - target: {fileID: 7838913747423854762, guid: a960b3c3fe4503543b72144fafa0d55d, type: 3}
      propertyPath: m_LocalPosition.x
      value: 0
      objectReference: {fileID: 0}
    - target: {fileID: 7838913747423854762, guid: a960b3c3fe4503543b72144fafa0d55d, type: 3}
      propertyPath: m_LocalPosition.y
      value: 0
      objectReference: {fileID: 0}
    - target: {fileID: 7838913747423854762, guid: a960b3c3fe4503543b72144fafa0d55d, type: 3}
      propertyPath: m_LocalPosition.z
      value: 0
      objectReference: {fileID: 0}
    - target: {fileID: 7838913747423854762, guid: a960b3c3fe4503543b72144fafa0d55d, type: 3}
      propertyPath: m_LocalRotation.x
      value: -0
      objectReference: {fileID: 0}
    - target: {fileID: 7838913747423854762, guid: a960b3c3fe4503543b72144fafa0d55d, type: 3}
      propertyPath: m_LocalRotation.y
      value: -0
      objectReference: {fileID: 0}
    - target: {fileID: 7838913747423854762, guid: a960b3c3fe4503543b72144fafa0d55d, type: 3}
      propertyPath: m_LocalRotation.z
      value: -0
      objectReference: {fileID: 0}
    - target: {fileID: 7838913747423854762, guid: a960b3c3fe4503543b72144fafa0d55d, type: 3}
      propertyPath: m_LocalRotation.w
      value: 1
      objectReference: {fileID: 0}
    - target: {fileID: 7838913747423854762, guid: a960b3c3fe4503543b72144fafa0d55d, type: 3}
      propertyPath: m_RootOrder
      value: 0
      objectReference: {fileID: 0}
    - target: {fileID: 7838913747423854762, guid: a960b3c3fe4503543b72144fafa0d55d, type: 3}
      propertyPath: m_LocalEulerAnglesHint.x
      value: 0
      objectReference: {fileID: 0}
    - target: {fileID: 7838913747423854762, guid: a960b3c3fe4503543b72144fafa0d55d, type: 3}
      propertyPath: m_LocalEulerAnglesHint.y
      value: 0
      objectReference: {fileID: 0}
    - target: {fileID: 7838913747423854762, guid: a960b3c3fe4503543b72144fafa0d55d, type: 3}
      propertyPath: m_LocalEulerAnglesHint.z
      value: 0
      objectReference: {fileID: 0}
    - target: {fileID: 7838913747423854762, guid: a960b3c3fe4503543b72144fafa0d55d, type: 3}
      propertyPath: m_AnchoredPosition.x
      value: -542
      objectReference: {fileID: 0}
    - target: {fileID: 7838913747423854762, guid: a960b3c3fe4503543b72144fafa0d55d, type: 3}
      propertyPath: m_AnchoredPosition.y
      value: -305
      objectReference: {fileID: 0}
    - target: {fileID: 7838913747423854762, guid: a960b3c3fe4503543b72144fafa0d55d, type: 3}
      propertyPath: m_SizeDelta.x
      value: 199.99683
      objectReference: {fileID: 0}
    - target: {fileID: 7838913747423854762, guid: a960b3c3fe4503543b72144fafa0d55d, type: 3}
      propertyPath: m_SizeDelta.y
      value: 0
      objectReference: {fileID: 0}
    - target: {fileID: 7838913747423854762, guid: a960b3c3fe4503543b72144fafa0d55d, type: 3}
      propertyPath: m_AnchorMin.x
      value: 0.5
      objectReference: {fileID: 0}
    - target: {fileID: 7838913747423854762, guid: a960b3c3fe4503543b72144fafa0d55d, type: 3}
      propertyPath: m_AnchorMin.y
      value: 0.5
      objectReference: {fileID: 0}
    - target: {fileID: 7838913747423854762, guid: a960b3c3fe4503543b72144fafa0d55d, type: 3}
      propertyPath: m_AnchorMax.x
      value: 0.5
      objectReference: {fileID: 0}
    - target: {fileID: 7838913747423854762, guid: a960b3c3fe4503543b72144fafa0d55d, type: 3}
      propertyPath: m_AnchorMax.y
      value: 0.5
      objectReference: {fileID: 0}
    - target: {fileID: 7838913747423854762, guid: a960b3c3fe4503543b72144fafa0d55d, type: 3}
      propertyPath: m_Pivot.x
      value: 0.5
      objectReference: {fileID: 0}
    - target: {fileID: 7838913747423854762, guid: a960b3c3fe4503543b72144fafa0d55d, type: 3}
      propertyPath: m_Pivot.y
      value: 0.5
      objectReference: {fileID: 0}
    m_RemovedComponents: []
  m_SourcePrefab: {fileID: 100100000, guid: a960b3c3fe4503543b72144fafa0d55d, type: 3}
